<?xml version="1.0" encoding="UTF-8"?>
<svg width="89px" height="113px" viewBox="0 0 89 113" version="1.1" xmlns="http://www.w3.org/2000/svg" xmlns:xlink="http://www.w3.org/1999/xlink">
    <!-- Generator: sketchtool 56.2 (101010) - https://sketch.com -->
    <title>B7E3411A-B8A8-484C-B953-5B24248697A9@1.5x</title>
    <desc>Created with sketchtool.</desc>
    <g id="Page-1" stroke="none" stroke-width="1" fill="none" fill-rule="evenodd">
        <g id="Design-Naming" transform="translate(-508.000000, -1887.000000)" stroke="#C5A36A">
            <g id="Group-20" transform="translate(307.000000, 1772.000000)">
                <g id="Group-18" transform="translate(200.000000, 110.000000)">
                    <g id="Group-16" transform="translate(0.000000, 4.000000)">
                        <rect id="Rectangle" transform="translate(45.500000, 69.500000) rotate(-45.000000) translate(-45.500000, -69.500000) " x="14.5" y="38.5" width="62" height="62"></rect>
                        <rect id="Rectangle-Copy" transform="translate(45.500000, 45.500000) rotate(-45.000000) translate(-45.500000, -45.500000) " x="14.5" y="14.5" width="62" height="62"></rect>
                        <g id="award-(3)" transform="translate(35.000000, 42.000000)" stroke-linecap="round" stroke-linejoin="round">
                            <circle id="Oval" cx="10" cy="10" r="10"></circle>
                            <polyline id="Path" points="4.58571429 18.4142857 2.85714286 31.4285714 10 27.1428571 17.1428571 31.4285714 15.4142857 18.4"></polyline>
                        </g>
                    </g>
                </g>
            </g>
        </g>
    </g>
</svg>