<?xml version="1.0" encoding="UTF-8"?>
<svg width="24px" height="20px" viewBox="0 0 24 20" version="1.1" xmlns="http://www.w3.org/2000/svg" xmlns:xlink="http://www.w3.org/1999/xlink">
    <!-- Generator: sketchtool 56.2 (101010) - https://sketch.com -->
    <title>F198C098-A659-49E9-91A7-F813193D1812@1.5x</title>
    <desc>Created with sketchtool.</desc>
    <g id="Page-1" stroke="none" stroke-width="1" fill="none" fill-rule="evenodd" stroke-linecap="round" stroke-linejoin="round">
        <g id="ecommerce-marketing-copy-2" transform="translate(-922.000000, -3655.000000)" stroke="#C5A36A" stroke-width="2">
            <g id="Group-12" transform="translate(0.000000, 2324.000000)">
                <g id="sliders-(2)" transform="translate(923.000000, 1332.000000)">
                    <path d="M3,18 L3,11" id="Path"></path>
                    <path d="M3,7 L3,0" id="Path"></path>
                    <path d="M11,18 L11,9" id="Path"></path>
                    <path d="M11,5 L11,0" id="Path"></path>
                    <path d="M19,18 L19,13" id="Path"></path>
                    <path d="M19,9 L19,0" id="Path"></path>
                    <path d="M0,11 L6,11" id="Path"></path>
                    <path d="M8,5 L14,5" id="Path"></path>
                    <path d="M16,13 L22,13" id="Path"></path>
                </g>
            </g>
        </g>
    </g>
</svg>