<?xml version="1.0" encoding="UTF-8"?>
<svg width="545px" height="501px" viewBox="0 0 545 501" version="1.1" xmlns="http://www.w3.org/2000/svg" xmlns:xlink="http://www.w3.org/1999/xlink">
    <!-- Generator: sketchtool 56.2 (101010) - https://sketch.com -->
    <title>ED45CCB3-227B-4816-9910-97FDFEEDD607@1.5x</title>
    <desc>Created with sketchtool.</desc>
    <defs>
        <filter x="0.0%" y="0.0%" width="100.0%" height="100.0%" filterUnits="objectBoundingBox" id="filter-1">
            <feGaussianBlur stdDeviation="0" in="SourceGraphic"></feGaussianBlur>
        </filter>
    </defs>
    <g id="Page-1" stroke="none" stroke-width="1" fill="none" fill-rule="evenodd">
        <g id="ecommerce-marketing-copy" transform="translate(-1156.000000, -2096.000000)">
            <g id="Group-18" transform="translate(1158.000000, 2096.000000)">
                <g id="Group-16" transform="translate(17.000000, 0.000000)">
                    <polygon id="Rectangle-Copy-6" fill="#D8D8D8" points="71 0 514 0 292.5 443"></polygon>
                    <polygon id="Path-2" fill="#D8D8D8" points="222 443 292 443 292 350 222 350"></polygon>
                    <polygon id="Rectangle" fill="#F6F6F6" points="0 0 443 0 221.5 443"></polygon>
                    <ellipse id="Oval" fill="#D8D8D8" opacity="0.300000012" filter="url(#filter-1)" cx="257" cy="490" rx="153" ry="11"></ellipse>
                </g>
                <g id="Group-17" transform="translate(0.000000, 145.000000)" stroke="#C5A36A" stroke-dasharray="0,10" stroke-linecap="square" stroke-width="4">
                    <path d="M9.09494702e-13,0.5 L548.683594,0.5" id="Line"></path>
                    <path d="M9.09494702e-13,145.5 L548.683594,145.5" id="Line-Copy"></path>
                </g>
            </g>
        </g>
    </g>
</svg>