<?xml version="1.0" encoding="UTF-8"?>
<svg width="435px" height="623px" viewBox="0 0 435 623" version="1.1" xmlns="http://www.w3.org/2000/svg" xmlns:xlink="http://www.w3.org/1999/xlink">
    <!-- Generator: sketchtool 56.2 (101010) - https://sketch.com -->
    <title>66B044F8-A251-4BB4-90A0-BCD210D75A2A@1.5x</title>
    <desc>Created with sketchtool.</desc>
    <defs>
        <filter x="0.0%" y="0.0%" width="100.0%" height="100.0%" filterUnits="objectBoundingBox" id="filter-1">
            <feGaussianBlur stdDeviation="0" in="SourceGraphic"></feGaussianBlur>
        </filter>
    </defs>
    <g id="Page-1" stroke="none" stroke-width="1" fill="none" fill-rule="evenodd">
        <g id="ecommerce-marketing-copy" transform="translate(-507.000000, -756.000000)">
            <g id="Group-12" transform="translate(507.000000, 754.000000)">
                <ellipse id="Oval" fill="#D8D8D8" opacity="0.300000012" filter="url(#filter-1)" cx="217" cy="614" rx="153" ry="11"></ellipse>
                <g id="Group" transform="translate(0.000000, 144.000000)">
                    <path d="M185,250.210938 C185.000605,250.377461 185,250.544129 185,250.710938 C185,287.990158 215.220779,318.210938 252.5,318.210938 C289.779221,318.210938 320,287.990158 320,250.710938 C320,250.599732 319.999396,250.433065 319.998187,250.210937 L320,-8.52651283e-14 L435,-8.52651283e-14 L435,250.210938 C435,250.377552 435,250.544219 435,250.710938 C435,351.502904 353.291967,433.210938 252.5,433.210938 C151.708033,433.210938 70,351.502904 70,250.710938 C70,250.544219 70,250.377552 70,250.210937 L70,-8.52651283e-14 L185,-8.52651283e-14 L185,250.210938 Z" id="Path-Copy" fill="#D8D8D8"></path>
                    <rect id="Rectangle" fill="#D8D8D8" x="182" y="405" width="78" height="28"></rect>
                    <path d="M115,250.210938 C115.000605,250.377461 115,250.544129 115,250.710937 C115,287.990158 145.220779,318.210937 182.5,318.210937 C219.779221,318.210937 250,287.990158 250,250.710937 C250,250.599732 249.999396,250.433065 249.998187,250.210937 L250,-1.13686838e-13 L365,-1.13686838e-13 L365,250.210938 C365,250.377552 365,250.544219 365,250.710937 C365,351.502904 283.291967,433.210938 182.5,433.210938 C81.7080332,433.210938 0,351.502904 0,250.710937 C0,250.544219 0,250.377552 0,250.210937 L0,-1.13686838e-13 L115,-1.13686838e-13 L115,250.210938 Z" id="Path" fill="#F6F6F6"></path>
                    <rect id="Rectangle" fill="#000000" opacity="0.0352213557" x="0" y="0" width="185" height="43"></rect>
                    <rect id="Rectangle-Copy" fill="#000000" opacity="0.0352213557" x="250" y="0" width="185" height="43"></rect>
                </g>
                <g id="zap-(2)" transform="translate(0.000000, 84.000000)" fill="#C5A36A">
                    <path d="M2.12705391,45.6 L32.8680392,45.6 C33.4203239,45.6 33.8680392,46.0477153 33.8680392,46.6 C33.8680392,46.6412249 33.86549,46.6824103 33.8604061,46.7233204 L30.6445387,72.6015943 C30.5764307,73.1496634 30.9655161,73.6491736 31.5135852,73.7172816 C31.8523502,73.7593796 32.189186,73.625759 32.4069693,73.3628817 L66.6430098,32.037967 C66.9953492,31.6126726 66.9362075,30.9822757 66.5109131,30.6299363 C66.3315298,30.4813244 66.1058922,30.4 65.8729461,30.4 L35.1319608,30.4 C34.5796761,30.4 34.1319608,29.9522847 34.1319608,29.4 C34.1319608,29.3587751 34.13451,29.3175897 34.1395939,29.2766796 L37.3554613,3.39840572 C37.4235693,2.85033661 37.0344839,2.35082637 36.4864148,2.28271837 C36.1476498,2.24062037 35.810814,2.37424104 35.5930307,2.63711827 L1.35699021,43.962033 C1.00465076,44.3873274 1.06379247,45.0177243 1.4890869,45.3700637 C1.66847021,45.5186756 1.89410784,45.6 2.12705391,45.6 Z" id="Path"></path>
                </g>
                <g id="zap-(2)-copy" transform="translate(118.000000, 0.000000)" fill="#C5A36A">
                    <path d="M2.12705391,45.6 L32.8680392,45.6 C33.4203239,45.6 33.8680392,46.0477153 33.8680392,46.6 C33.8680392,46.6412249 33.86549,46.6824103 33.8604061,46.7233204 L30.6445387,72.6015943 C30.5764307,73.1496634 30.9655161,73.6491736 31.5135852,73.7172816 C31.8523502,73.7593796 32.189186,73.625759 32.4069693,73.3628817 L66.6430098,32.037967 C66.9953492,31.6126726 66.9362075,30.9822757 66.5109131,30.6299363 C66.3315298,30.4813244 66.1058922,30.4 65.8729461,30.4 L35.1319608,30.4 C34.5796761,30.4 34.1319608,29.9522847 34.1319608,29.4 C34.1319608,29.3587751 34.13451,29.3175897 34.1395939,29.2766796 L37.3554613,3.39840572 C37.4235693,2.85033661 37.0344839,2.35082637 36.4864148,2.28271837 C36.1476498,2.24062037 35.810814,2.37424104 35.5930307,2.63711827 L1.35699021,43.962033 C1.00465076,44.3873274 1.06379247,45.0177243 1.4890869,45.3700637 C1.66847021,45.5186756 1.89410784,45.6 2.12705391,45.6 Z" id="Path"></path>
                </g>
                <g id="zap-(2)-copy-2" transform="translate(272.000000, 59.000000)" fill="#C5A36A">
                    <path d="M2.12705391,45.6 L32.8680392,45.6 C33.4203239,45.6 33.8680392,46.0477153 33.8680392,46.6 C33.8680392,46.6412249 33.86549,46.6824103 33.8604061,46.7233204 L30.6445387,72.6015943 C30.5764307,73.1496634 30.9655161,73.6491736 31.5135852,73.7172816 C31.8523502,73.7593796 32.189186,73.625759 32.4069693,73.3628817 L66.6430098,32.037967 C66.9953492,31.6126726 66.9362075,30.9822757 66.5109131,30.6299363 C66.3315298,30.4813244 66.1058922,30.4 65.8729461,30.4 L35.1319608,30.4 C34.5796761,30.4 34.1319608,29.9522847 34.1319608,29.4 C34.1319608,29.3587751 34.13451,29.3175897 34.1395939,29.2766796 L37.3554613,3.39840572 C37.4235693,2.85033661 37.0344839,2.35082637 36.4864148,2.28271837 C36.1476498,2.24062037 35.810814,2.37424104 35.5930307,2.63711827 L1.35699021,43.962033 C1.00465076,44.3873274 1.06379247,45.0177243 1.4890869,45.3700637 C1.66847021,45.5186756 1.89410784,45.6 2.12705391,45.6 Z" id="Path"></path>
                </g>
            </g>
        </g>
    </g>
</svg>