<?xml version="1.0" encoding="UTF-8"?>
<svg width="20px" height="22px" viewBox="0 0 20 22" version="1.1" xmlns="http://www.w3.org/2000/svg" xmlns:xlink="http://www.w3.org/1999/xlink">
    <!-- Generator: sketchtool 56.2 (101010) - https://sketch.com -->
    <title>11E2AB89-1A96-4389-BD41-6F712BB7F3F7@1.5x</title>
    <desc>Created with sketchtool.</desc>
    <g id="Page-1" stroke="none" stroke-width="1" fill="none" fill-rule="evenodd" stroke-linecap="round" stroke-linejoin="round">
        <g id="ecommerce-marketing-copy" transform="translate(-581.000000, -1554.000000)" stroke="#C5A36A" stroke-width="2">
            <g id="Group-14" transform="translate(507.000000, 1476.000000)">
                <g id="zap-(3)" transform="translate(75.000000, 79.000000)">
                    <polygon id="Path" points="10 0 0 12 9 12 8 20 18 8 9 8"></polygon>
                </g>
            </g>
        </g>
    </g>
</svg>