<?xml version="1.0" encoding="UTF-8"?>
<svg width="22px" height="14px" viewBox="0 0 22 14" version="1.1" xmlns="http://www.w3.org/2000/svg" xmlns:xlink="http://www.w3.org/1999/xlink">
    <!-- Generator: sketchtool 57.1 (101010) - https://sketch.com -->
    <title>C050B4F9-326B-4D5D-ADCF-B7C50A17423A@1.5x</title>
    <desc>Created with sketchtool.</desc>
    <g id="Page-1" stroke="none" stroke-width="1" fill="none" fill-rule="evenodd" stroke-linecap="round" stroke-linejoin="round">
        <g id="sobre-nos" transform="translate(-1361.000000, -3705.000000)" stroke="#C5A36A" stroke-width="2">
            <g id="Group-14" transform="translate(507.000000, 3702.000000)">
                <g id="code-(1)" transform="translate(855.000000, 4.000000)">
                    <polyline id="Path" points="14 12 20 6 14 0"></polyline>
                    <polyline id="Path" points="6 0 0 6 6 12"></polyline>
                </g>
            </g>
        </g>
    </g>
</svg>
