<?xml version="1.0" encoding="UTF-8"?>
<svg width="31px" height="18px" viewBox="0 0 31 18" version="1.1" xmlns="http://www.w3.org/2000/svg" xmlns:xlink="http://www.w3.org/1999/xlink">
    <!-- Generator: sketchtool 56.2 (101010) - https://sketch.com -->
    <title>B077B12B-3EE1-4AFE-80F9-D66DF70DB119@1.5x</title>
    <desc>Created with sketchtool.</desc>
    <defs>
        <ellipse id="path-1" cx="15.5" cy="21" rx="15.5" ry="21"></ellipse>
    </defs>
    <g id="Page-1" stroke="none" stroke-width="1" fill="none" fill-rule="evenodd">
        <g id="home" transform="translate(-1876.000000, -105.000000)">
            <g id="Oval-2" transform="translate(1876.000000, 93.000000)">
                <mask id="mask-2" fill="white">
                    <use xlink:href="#path-1"></use>
                </mask>
                <g id="Oval"></g>
                <path d="M0,12 L31,12 L31,16 L0,16 L0,12 Z M0,19 L31,19 L31,23 L0,23 L0,19 Z M0,26 L31,26 L31,30 L0,30 L0,26 Z" id="Combined-Shape" fill="#FFFFFF" mask="url(#mask-2)"></path>
            </g>
        </g>
    </g>
</svg>