<?xml version="1.0" encoding="UTF-8"?>
<svg width="14px" height="8px" viewBox="0 0 14 8" version="1.1" xmlns="http://www.w3.org/2000/svg" xmlns:xlink="http://www.w3.org/1999/xlink">
    <!-- Generator: sketchtool 56.2 (101010) - https://sketch.com -->
    <title>1EB874B5-5D53-4F42-A3AC-DE56CFD34C4E@1.5x</title>
    <desc>Created with sketchtool.</desc>
    <g id="Page-1" stroke="none" stroke-width="1" fill="none" fill-rule="evenodd" stroke-linecap="round" stroke-linejoin="round">
        <g id="Design-Naming-Copy" transform="translate(-1668.000000, -856.000000)" stroke="#FFFFFF" stroke-width="2">
            <g id="Group-5" transform="translate(1548.000000, 841.000000)">
                <g id="chevron-down-(15)" transform="translate(121.000000, 16.000000)">
                    <polyline id="Path" points="0 0 6 6 12 0"></polyline>
                </g>
            </g>
        </g>
    </g>
</svg>