<?xml version="1.0" encoding="UTF-8"?>
<svg width="20px" height="20px" viewBox="0 0 20 20" version="1.1" xmlns="http://www.w3.org/2000/svg" xmlns:xlink="http://www.w3.org/1999/xlink">
    <!-- Generator: sketchtool 57.1 (101010) - https://sketch.com -->
    <title>089E22A9-D214-4105-BC31-DE41FC287521@1.5x</title>
    <desc>Created with sketchtool.</desc>
    <g id="Page-1" stroke="none" stroke-width="1" fill="none" fill-rule="evenodd" stroke-linecap="round" stroke-linejoin="round">
        <g id="sobre-nos" transform="translate(-506.000000, -3702.000000)" stroke="#C5A36A" stroke-width="2">
            <g id="Group-14" transform="translate(507.000000, 3702.000000)">
                <g id="git-branch" transform="translate(0.000000, 1.000000)">
                    <path d="M3,0 L3,12" id="Path"></path>
                    <circle id="Oval" cx="15" cy="3" r="3"></circle>
                    <circle id="Oval" cx="3" cy="15" r="3"></circle>
                    <path d="M15,6 C15,10.9705627 10.9705627,15 6,15" id="Path"></path>
                </g>
            </g>
        </g>
    </g>
</svg>